[
  {
    "port": 16,
    "svcm": "Cora.LowPower.Device.HealthCheckEvent",
    "uplk": "Cora.HealthCheckInfo",
    "dnlk": "Cora.VoidMsg"
  },
  {
    "port": 17,
    "svcm": "Cora.LowPower.Device.ResetEvent",
    "uplk": "Cora.ResetInfo",
    "dnlk": "Cora.VoidMsg"
  },
  {
    "port": 18,
    "svcm": "Cora.LowPower.Device.GetConfig",
    "uplk": "Cora.LowPower.Configuration",
    "dnlk": "Cora.VoidMsg"
  },
  {
    "port": 19,
    "svcm": "Cora.LowPower.Device.SetConfig",
    "uplk": "Cora.LowPower.Configuration",
    "dnlk": "Cora.LowPower.Configuration"
  },
  {
    "port": 8,
    "svcm": "Cora.LowPower.Device.SetDefinedConfig",
    "uplk": "Cora.VoidMsg",
    "dnlk": "Cora.DefinedConfigParams"
  },
  {
    "port": 48,
    "svcm": "Cora.MultiValue.Sensor.TriggerNotifyEvent",
    "uplk": "Cora.MultiValue.TriggerInfo",
    "dnlk": "Cora.VoidMsg"
  },
  {
    "port": 49,
    "svcm": "Cora.MultiValue.Sensor.ReportEvent",
    "uplk": "Cora.MultiValue.ReportInfo",
    "dnlk": "Cora.VoidMsg"
  },
  {
    "port": 50,
    "svcm": "Cora.MultiValue.Sensor.StatsReportEvent",
    "uplk": "Cora.MultiValue.Statistics",
    "dnlk": "Cora.VoidMsg"
  },
  {
    "port": 51,
    "svcm": "Cora.MultiValue.Sensor.GetConfig",
    "uplk": "Cora.MultiValue.Configuration",
    "dnlk": "Cora.Uint32Param"
  },
  {
    "port": 52,
    "svcm": "Cora.MultiValue.Sensor.SetConfig",
    "uplk": "Cora.MultiValue.Configuration",
    "dnlk": "Cora.MultiValue.Configuration"
  },
  {
    "port": 53,
    "svcm": "Cora.MultiValue.Sensor.GetStats",
    "uplk": "Cora.MultiValue.Statistics",
    "dnlk": "Cora.Uint32Param"
  },
  {
    "port": 54,
    "svcm": "Cora.MultiValue.Sensor.StatsClear",
    "uplk": "Cora.Uint32Param",
    "dnlk": "Cora.VoidMsg"
  },
  {
    "port": 55,
    "svcm": "Cora.MultiValue.Sensor.SetTrigger",
    "uplk": "Cora.VoidMsg",
    "dnlk": "Cora.MultiValue.TriggerSpec"
  },
  {
    "port": 56,
    "svcm": "Cora.MultiValue.Sensor.GetTrigger",
    "uplk": "Cora.MultiValue.TriggerSpec",
    "dnlk": "Cora.MultiValue.TriggerSpecId"
  }
]
